<?xml version="1.0" encoding="UTF-8"?>
<svg width="48px" height="48px" viewBox="0 0 48 48" version="1.1" xmlns="http://www.w3.org/2000/svg" xmlns:xlink="http://www.w3.org/1999/xlink">
    <title>Day 14</title>
    <defs>
        <filter x="-68.3%" y="-67.5%" width="236.6%" height="234.9%" filterUnits="objectBoundingBox" id="filter-1">
            <feOffset dx="0" dy="0" in="SourceAlpha" result="shadowOffsetOuter1"></feOffset>
            <feGaussianBlur stdDeviation="5" in="shadowOffsetOuter1" result="shadowBlurOuter1"></feGaussianBlur>
            <feColorMatrix values="0 0 0 0 0   0 0 0 0 0   0 0 0 0 0  0 0 0 0.358965253 0" type="matrix" in="shadowBlurOuter1" result="shadowMatrixOuter1"></feColorMatrix>
            <feMerge>
                <feMergeNode in="shadowMatrixOuter1"></feMergeNode>
                <feMergeNode in="SourceGraphic"></feMergeNode>
            </feMerge>
        </filter>
        <radialGradient cx="50%" cy="28.9877429%" fx="50%" fy="28.9877429%" r="71.8782602%" gradientTransform="translate(0.500000,0.289877),scale(1.000000,0.987952),rotate(90.000000),translate(-0.500000,-0.289877)" id="radialGradient-2">
            <stop stop-color="#AFAFAF" offset="0%"></stop>
            <stop stop-color="#575757" offset="100%"></stop>
        </radialGradient>
        <linearGradient x1="50%" y1="0%" x2="50%" y2="99.1586538%" id="linearGradient-3">
            <stop stop-color="#A7A7A7" stop-opacity="0.93" offset="0%"></stop>
            <stop stop-color="#757575" stop-opacity="0.93" offset="100%"></stop>
        </linearGradient>
        <linearGradient x1="50%" y1="0%" x2="50%" y2="100%" id="linearGradient-4">
            <stop stop-color="#7C7C7C" offset="0%"></stop>
            <stop stop-color="#535353" offset="100%"></stop>
        </linearGradient>
    </defs>
    <g id="Day-14" stroke="none" stroke-width="1" fill="none" fill-rule="evenodd">
        <g id="Group" filter="url(#filter-1)" transform="translate(8.625000, 8.625000)">
            <ellipse id="Oval" fill="url(#radialGradient-2)" cx="15.375" cy="15.5625" rx="15.375" ry="15.5625"></ellipse>
            <path d="M25.1754584,4.43257316 L23.1463068,5.52088758 L21.8118118,6.50275679 L21.1245289,7.02984709 L23.1463068,9.76253186 L21.1245289,9.76253186 C21.2784314,9.82799677 20.9635205,10.0939148 20.1797961,10.5602859 C19.3960717,11.026657 18.8899148,11.4821481 18.6613252,11.9267592 L19.1228616,13.3732575 L20.1797961,13.9642903 C20.3514294,13.9642903 20.6663404,13.9642903 21.1245289,13.9642903 C21.5827175,13.9642903 22.079031,14.2590211 22.6134693,14.8484829 L22.6134693,15.993442 L24.3804529,15.993442 L25.6239231,17.6445031 L25.6239231,19.3017158 L22.6134693,19.970968 L21.1245289,17.6445031 L19.1228616,18.8206462 L19.1228616,22.2226762 L19.735227,23.3411564 L21.1245289,24.5085722 L19.1228616,25.230174 L18.6613252,26.2166258 L17.873663,26.8420631 L16.4733004,25.7373251 L15.375,24.5085722 L14.4733839,25.230174 L13.6021882,25.7373251 L12.1416827,24.5085722 L9.7201959,23.0570414 L8.45355933,24.5085722 L7.34156613,23.0570414 L6.33329846,21.3753528 L4.80852721,21.3753528 L3.69540981,21.3753528 L3.19264676,22.2226762 L2.47155352,23.0570414 L1.39811784,23.0570414 L0,17.6445031 L0,14.8484829 L0.755921836,10.5602859 L2.47155352,7.02984709 L4.80852721,4.43257316 L7.34156613,2.44522771 L11.5066718,0.742292363 L14.4733839,0 L16.9029952,0 L18.6613252,0.742292363 L19.1228616,1.79407267 L21.1245289,2.44522771 L21.8118118,3.97036633 L24.3804529,3.97036633 L25.1754584,4.43257316 Z" id="Path-6" fill="url(#linearGradient-3)"></path>
            <path d="M24.3804529,4.38971377 L21.6879639,5.90039429 L21.999548,6.68397815 L21.999548,7.90277469 L20.4181077,8.991711 L18.8519451,10.5602859 L16.8947947,7.90277469 L17.4492134,6.68397815 L15.9791394,5.57071817 L16.8947947,5.08786326 C16.8129117,5.43951779 16.6398317,5.08699217 16.3755548,4.03028639 C16.1112778,2.9735806 16.1112778,2.44522771 16.3755548,2.44522771 L18.4436694,2.44522771 L21.6879639,4.03028639 L24.3804529,4.38971377 Z" id="Path-3" fill-opacity="0.68" fill="#606060"></path>
            <path d="M7.3430321,9.74353338 L7.3430321,7.34755185 L10.5690336,4.87518196 L13.0482382,8.03786149 L14.3962919,8.03786149 L13.0482382,9.74353338 C12.8224689,12.6267253 13.1538202,14.0683212 14.0422921,14.0683212 C14.930764,14.0683212 15.048764,13.408902 14.3962919,12.0900635 L14.7949186,10.5602859 L15.9791394,10.5602859 L15.9791394,12.0900635 L17.0783278,13.2879537 L17.0783278,14.56766 L19.0935736,15.5625 L20.5982235,14.56766 L22.2681134,14.56766 L22.6134693,15.5625 L21.3667307,15.5625 L20.1797961,15.9155126 L19.9199751,16.7117609 L18.0030291,16.7117609 L16.5777829,15.5625 L15.9791394,15.9155126 L14.9782507,16.7117609 L14.9782507,17.6445031 L11.6055031,17.0102786 L9.8875689,16.2679042 L10.1683967,14.56766 L6.33329846,12.0900635 L7.3430321,9.74353338 Z" id="Path-4" fill-opacity="0.68" fill="#606060"></path>
            <path d="M5.17627486,13.3732575 C5.2932913,14.8149824 5.67896583,15.7907335 6.33329846,16.3005107 C7.31479742,17.0651765 8.84061392,15.8933018 8.84061392,17.2344413 C8.84061392,18.1285342 9.78545027,18.5305155 11.675123,18.4403852 L14.4733839,18.9579136 C14.6717017,20.4010806 14.9722404,21.1226641 15.375,21.1226641 C15.7777596,21.1226641 15.9791394,20.4010806 15.9791394,18.9579136 L19.4980759,18.0461551 L19.4980759,19.862642 L21.8118118,18.0461551 L20.1797961,23.0570414 L21.8118118,23.4869631 C18.1216814,24.8162054 15.9760774,25.2408995 15.375,24.7610456 C14.7739226,24.2811917 14.4733839,24.2811917 14.4733839,24.7610456 L12.7493865,25.230174 L11.2568281,23.0570414 C10.8187946,22.770427 10.3065839,22.770427 9.7201959,23.0570414 C8.84061392,23.4869631 7.34156613,24.5117451 7.34156613,23.0570414 C7.34156613,22.087239 6.74183885,21.1863862 5.5423843,20.3544832 L3.57474887,19.862642 L4.04468845,21.1226641 L2.47155352,18.9579136 C3.52031014,19.1286205 4.04468845,18.824701 4.04468845,18.0461551 C4.04468845,17.2676092 4.42188392,15.7099767 5.17627486,13.3732575 Z" id="Path-5" fill-opacity="0.68" fill="#606060"></path>
            <polygon id="Path-7" fill-opacity="0.68" fill="#606060" points="4.80843511 5.56805154 5.53980132 7.09602442 4.1741529 7.95683598 4.80843511 9.87754604 2.47155352 10.5602859 1.7121024 11.9934597 0.640294921 11.2598425"></polygon>
            <polygon id="Path-9" fill-opacity="0.68" fill="#606060" points="14.4733839 0 14.4733839 2.44522771 12.8119615 1.82138541 12.8119615 3.43945225 14.8404495 5.56805154 13.8262055 5.56805154 10.5583974 2.78402577 10.5583974 3.43945225 10.0356971 3.9945139 7.47708039 5.56805154 6.8339959 3.9945139 4.81154179 3.9945139 7.47708039 2.78402577 8.80182407 1.82138541 10.5583974 0.859088694"></polygon>
            <polygon id="Path-8" fill-opacity="0.68" fill="#606060" points="0 14.4889071 2.47155352 14.4889071 3.09004812 13.3732575 3.09004812 14.4889071 4.3382896 16.0347434 3.09004812 16.0347434 3.09004812 17.6445031 2.1691448 17.6445031 2.1691448 18.8289507 1.01076751 18.8289507 0.640294921 17.2383263 0 16.0347434"></polygon>
            <ellipse id="Oval-Copy-2" stroke="url(#linearGradient-4)" stroke-width="2" cx="15.375" cy="15.5625" rx="15.375" ry="15.5625"></ellipse>
        </g>
    </g>
</svg>